<svg width="60" height="90" viewBox="0 0 60 90" fill="none" xmlns="http://www.w3.org/2000/svg">
<rect x="0.25" y="0.25" width="59.5" height="89.5" rx="3.75" fill="#FAFAFA"/>
<rect x="3.75" y="3.75" width="52.5" height="82.5" rx="1.25" stroke="#8CC641" stroke-width="1.5"/>
<g clip-path="url(#clip0)">
<g filter="url(#filter0_f)">
<ellipse cx="30" cy="73" rx="16" ry="5" fill="#CCCCCC"/>
</g>
<ellipse cx="30.0944" cy="55.7422" rx="18.0944" ry="18.1181" fill="url(#paint0_radial)"/>
<path d="M14.9571 67.9124C21.6367 58.1622 25.4827 58.019 27.7543 58.0922C28.1846 58.1061 28.5644 57.8356 28.7301 57.4382C28.9864 56.8235 29.2858 56.2141 29.4454 55.7441C29.5548 55.4221 29.3893 55.0956 29.0863 54.9412C23.9484 52.324 15.3643 58.2218 12.909 61.7354C10.8984 65.4247 12.61 68.183 14.3133 68.2857C14.5758 68.3016 14.8085 68.1293 14.9571 67.9124Z" fill="#111111"/>
<path d="M14.9571 67.9124C21.6367 58.1622 25.4827 58.019 27.7543 58.0922C28.1846 58.1061 28.5644 57.8356 28.7301 57.4382C28.9864 56.8235 29.2858 56.2141 29.4454 55.7441C29.5548 55.4221 29.3893 55.0956 29.0863 54.9412C23.9484 52.324 15.3643 58.2218 12.909 61.7354C10.8984 65.4247 12.61 68.183 14.3133 68.2857C14.5758 68.3016 14.8085 68.1293 14.9571 67.9124Z" fill="url(#paint1_linear)"/>
<path d="M20.1254 72.7198C29.506 65.7695 30.0283 62.7323 30.2143 60.641C30.2524 60.2124 30.566 59.8635 30.995 59.8321C31.7933 59.7738 32.7286 59.8209 33.3554 59.8722C33.6947 59.8999 33.9958 60.1086 34.1106 60.4292C36.0616 65.8784 28.6292 74.2072 24.8534 76.231C20.8943 77.8166 19.5893 75.5476 19.7405 73.3802C19.7589 73.1163 19.9128 72.8773 20.1254 72.7198Z" fill="#111111"/>
<path d="M20.1254 72.7198C29.506 65.7695 30.0283 62.7323 30.2143 60.641C30.2524 60.2124 30.566 59.8635 30.995 59.8321C31.7933 59.7738 32.7286 59.8209 33.3554 59.8722C33.6947 59.8999 33.9958 60.1086 34.1106 60.4292C36.0616 65.8784 28.6292 74.2072 24.8534 76.231C20.8943 77.8166 19.5893 75.5476 19.7405 73.3802C19.7589 73.1163 19.9128 72.8773 20.1254 72.7198Z" fill="url(#paint2_radial)"/>
<path d="M29.5548 56.2016C34.2496 58.8169 43.4354 61.3403 42.621 50.5122C41.5378 50.9943 33.4589 54.506 29.5548 56.2016Z" fill="#C7C7C7"/>
<path d="M29.5548 56.2016C34.2496 58.8169 43.4354 61.3403 42.621 50.5122C41.5378 50.9943 33.4589 54.506 29.5548 56.2016Z" fill="url(#paint3_radial)"/>
<path d="M29.5548 56.2016C34.2496 58.8169 43.4354 61.3403 42.621 50.5122C41.5378 50.9943 33.4589 54.506 29.5548 56.2016Z" fill="url(#paint4_radial)"/>
<ellipse cx="31.1769" cy="57.5523" rx="3.257" ry="3.26127" fill="#EAEAEA"/>
<ellipse cx="31.1769" cy="57.5523" rx="3.257" ry="3.26127" fill="url(#paint5_linear)"/>
<g filter="url(#filter1_d)">
<path d="M21.859 35.2027C25.8783 47.7087 30.5964 43.7443 33.5927 47.3868C36.589 51.0293 34.9424 55.8026 37.6176 59.8934C40.5386 64.3603 47.9998 61.1726 47.6592 69.1985" stroke="#B5D43B" stroke-width="2"/>
<path d="M21.859 35.2027C25.8783 47.7087 30.5964 43.7443 33.5927 47.3868C36.589 51.0293 34.9424 55.8026 37.6176 59.8934C40.5386 64.3603 47.9998 61.1726 47.6592 69.1985" stroke="url(#paint6_radial)" stroke-width="2"/>
<path d="M21.859 35.2027C25.8783 47.7087 30.5964 43.7443 33.5927 47.3868C36.589 51.0293 34.9424 55.8026 37.6176 59.8934C40.5386 64.3603 47.9998 61.1726 47.6592 69.1985" stroke="url(#paint7_radial)" stroke-width="2"/>
<path d="M21.859 35.2027C25.8783 47.7087 30.5964 43.7443 33.5927 47.3868C36.589 51.0293 34.9424 55.8026 37.6176 59.8934C40.5386 64.3603 47.9998 61.1726 47.6592 69.1985" stroke="url(#paint8_linear)" stroke-width="2"/>
<path d="M21.859 35.2027C25.8783 47.7087 30.5964 43.7443 33.5927 47.3868C36.589 51.0293 34.9424 55.8026 37.6176 59.8934C40.5386 64.3603 47.9998 61.1726 47.6592 69.1985" stroke="url(#paint9_radial)" stroke-width="2"/>
</g>
<path d="M32.3434 58.1903C29.2529 53.7901 25.7817 44.9082 36.6214 44.5817C36.2564 45.711 33.6174 54.1246 32.3434 58.1903Z" fill="#C7C7C7"/>
<path d="M32.3434 58.1903C29.2529 53.7901 25.7817 44.9082 36.6214 44.5817C36.2564 45.711 33.6174 54.1246 32.3434 58.1903Z" fill="url(#paint10_radial)"/>
<path d="M32.3434 58.1903C29.2529 53.7901 25.7817 44.9082 36.6214 44.5817C36.2564 45.711 33.6174 54.1246 32.3434 58.1903Z" fill="url(#paint11_radial)"/>
<ellipse cx="31.1766" cy="57.5535" rx="1.80944" ry="1.81181" fill="#AEAEAE"/>
<ellipse cx="31.1766" cy="57.5535" rx="1.80944" ry="1.81181" fill="url(#paint12_linear)"/>
</g>
<path d="M8.85547 21V11.0469H11.4873C12.6494 11.0469 13.5745 11.416 14.2627 12.1543C14.9554 12.8926 15.3086 13.9043 15.3223 15.1895V16.8027C15.3223 18.1107 14.9759 19.1383 14.2832 19.8857C13.5951 20.6286 12.6449 21 11.4326 21H8.85547ZM10.8652 12.7217V19.332H11.4668C12.1367 19.332 12.6084 19.1566 12.8818 18.8057C13.1553 18.4502 13.2988 17.8395 13.3125 16.9736V15.2441C13.3125 14.3145 13.1826 13.6673 12.9229 13.3027C12.6631 12.9336 12.221 12.7399 11.5967 12.7217H10.8652Z" fill="#111111"/>
<path d="M21.7121 16.6934H18.5813V19.332H22.2863V21H16.5715V11.0469H22.2727V12.7217H18.5813V15.0732H21.7121V16.6934Z" fill="#111111"/>
<path d="M28.3822 16.9395H25.2582V21H23.2484V11.0469H28.7582V12.7217H25.2582V15.2715H28.3822V16.9395Z" fill="#111111"/>
<path d="M36.1803 11.0469V17.9375C36.1712 18.972 35.8863 19.765 35.3258 20.3164C34.7652 20.8633 33.9609 21.1367 32.9127 21.1367C31.8463 21.1367 31.0305 20.8587 30.4654 20.3027C29.9049 19.7467 29.6246 18.9424 29.6246 17.8896V11.0469H31.648V17.8965C31.648 18.4616 31.7392 18.8649 31.9215 19.1064C32.1038 19.348 32.4342 19.4688 32.9127 19.4688C33.3912 19.4688 33.7193 19.3503 33.8971 19.1133C34.0748 18.8717 34.166 18.4775 34.1705 17.9307V11.0469H36.1803Z" fill="#111111"/>
<path d="M41.7088 18.3887C41.7088 17.9831 41.604 17.6777 41.3943 17.4727C41.1893 17.263 40.8133 17.0465 40.2664 16.8232C39.2684 16.445 38.5506 16.0029 38.1131 15.4971C37.6756 14.9867 37.4568 14.3851 37.4568 13.6924C37.4568 12.8538 37.7531 12.1816 38.3455 11.6758C38.9425 11.1654 39.699 10.9102 40.615 10.9102C41.2257 10.9102 41.7703 11.04 42.2488 11.2998C42.7273 11.555 43.0942 11.9173 43.3494 12.3867C43.6092 12.8561 43.7391 13.3893 43.7391 13.9863H41.7361C41.7361 13.5215 41.6359 13.1683 41.4354 12.9268C41.2394 12.6807 40.9546 12.5576 40.5809 12.5576C40.2299 12.5576 39.9565 12.6624 39.7605 12.8721C39.5646 13.0771 39.4666 13.3551 39.4666 13.7061C39.4666 13.9795 39.576 14.2279 39.7947 14.4512C40.0135 14.6699 40.4008 14.8978 40.9568 15.1348C41.9275 15.4857 42.6316 15.9163 43.0691 16.4268C43.5112 16.9372 43.7322 17.5866 43.7322 18.375C43.7322 19.2409 43.4565 19.9176 42.9051 20.4053C42.3536 20.8929 41.604 21.1367 40.6561 21.1367C40.0135 21.1367 39.4279 21.0046 38.8992 20.7402C38.3706 20.4759 37.9559 20.0977 37.6551 19.6055C37.3589 19.1133 37.2107 18.5322 37.2107 17.8623H39.2273C39.2273 18.4365 39.339 18.8535 39.5623 19.1133C39.7856 19.373 40.1502 19.5029 40.6561 19.5029C41.3579 19.5029 41.7088 19.1315 41.7088 18.3887Z" fill="#111111"/>
<path d="M50.0059 16.6934H46.875V19.332H50.5801V21H44.8652V11.0469H50.5664V12.7217H46.875V15.0732H50.0059V16.6934Z" fill="#111111"/>
<rect x="0.25" y="0.25" width="59.5" height="89.5" rx="3.75" stroke="#BBBBBB" stroke-width="0.5"/>
<defs>
<filter id="filter0_f" x="9" y="63" width="42" height="20" filterUnits="userSpaceOnUse" color-interpolation-filters="sRGB">
<feFlood flood-opacity="0" result="BackgroundImageFix"/>
<feBlend mode="normal" in="SourceGraphic" in2="BackgroundImageFix" result="shape"/>
<feGaussianBlur stdDeviation="2.5" result="effect1_foregroundBlur"/>
</filter>
<filter id="filter1_d" x="18.9082" y="34.896" width="29.7622" height="36.3447" filterUnits="userSpaceOnUse" color-interpolation-filters="sRGB">
<feFlood flood-opacity="0" result="BackgroundImageFix"/>
<feColorMatrix in="SourceAlpha" type="matrix" values="0 0 0 0 0 0 0 0 0 0 0 0 0 0 0 0 0 0 127 0"/>
<feOffset dx="-1" dy="1"/>
<feGaussianBlur stdDeviation="0.5"/>
<feColorMatrix type="matrix" values="0 0 0 0 0 0 0 0 0 0 0 0 0 0 0 0 0 0 0.12 0"/>
<feBlend mode="normal" in2="BackgroundImageFix" result="effect1_dropShadow"/>
<feBlend mode="normal" in="SourceGraphic" in2="effect1_dropShadow" result="shape"/>
</filter>
<radialGradient id="paint0_radial" cx="0" cy="0" r="1" gradientUnits="userSpaceOnUse" gradientTransform="translate(30.0944 55.7422) rotate(90) scale(18.1181 18.0944)">
<stop offset="0.369792" stop-color="#D4E032"/>
<stop offset="0.916667" stop-color="#98CE2D"/>
</radialGradient>
<linearGradient id="paint1_linear" x1="14.5332" y1="46.6814" x2="23.9624" y2="66.2393" gradientUnits="userSpaceOnUse">
<stop offset="0.455956" stop-color="white"/>
<stop offset="0.625" stop-color="#111111"/>
</linearGradient>
<radialGradient id="paint2_radial" cx="0" cy="0" r="1" gradientUnits="userSpaceOnUse" gradientTransform="translate(26.4773 65.163) rotate(130.327) scale(9.50637 4.35867)">
<stop offset="0.212429" stop-color="white" stop-opacity="0.65"/>
<stop offset="0.770833" stop-color="#111111"/>
</radialGradient>
<radialGradient id="paint3_radial" cx="0" cy="0" r="1" gradientUnits="userSpaceOnUse" gradientTransform="translate(37.4875 52.8934) rotate(157.244) scale(11.3369 1.13473)">
<stop stop-color="#EEEEEE"/>
<stop offset="1" stop-color="white" stop-opacity="0"/>
</radialGradient>
<radialGradient id="paint4_radial" cx="0" cy="0" r="1" gradientUnits="userSpaceOnUse" gradientTransform="translate(40.8988 57.6338) rotate(168.244) scale(14.5485 3.8558)">
<stop offset="0.284967" stop-color="#ACACAC"/>
<stop offset="1" stop-color="#B9B9B9" stop-opacity="0"/>
</radialGradient>
<linearGradient id="paint5_linear" x1="29.7294" y1="54.291" x2="31.906" y2="61.8991" gradientUnits="userSpaceOnUse">
<stop offset="0.0751818" stop-color="#FBFBFB"/>
<stop offset="0.863534" stop-color="#C4C1C1"/>
</linearGradient>
<radialGradient id="paint6_radial" cx="0" cy="0" r="1" gradientUnits="userSpaceOnUse" gradientTransform="translate(28.3156 39.729) rotate(135.606) scale(3.57955 9.60077)">
<stop offset="0.757988" stop-color="#F1EB25"/>
<stop offset="1" stop-color="#F3EC21" stop-opacity="0.1"/>
</radialGradient>
<radialGradient id="paint7_radial" cx="0" cy="0" r="1" gradientUnits="userSpaceOnUse" gradientTransform="translate(36.9982 49.6428) rotate(135.606) scale(2.04546 8.16112)">
<stop offset="0.318654" stop-color="#F1EB25"/>
<stop offset="0.759271" stop-color="#F3EC21" stop-opacity="0.1"/>
</radialGradient>
<linearGradient id="paint8_linear" x1="36.136" y1="53.4464" x2="30.6967" y2="57.417" gradientUnits="userSpaceOnUse">
<stop stop-color="#9FD62C" stop-opacity="0"/>
<stop offset="0.614583" stop-color="#689724"/>
</linearGradient>
<radialGradient id="paint9_radial" cx="0" cy="0" r="1" gradientUnits="userSpaceOnUse" gradientTransform="translate(40.34 59.6697) rotate(135.606) scale(2.04546 5.78189)">
<stop offset="0.214231" stop-color="#EEEA1E"/>
<stop offset="0.903672" stop-color="#EEEA1E" stop-opacity="0.1"/>
</radialGradient>
<radialGradient id="paint10_radial" cx="0" cy="0" r="1" gradientUnits="userSpaceOnUse" gradientTransform="translate(34.7958 49.9436) rotate(102.513) scale(10.0218 1.11222)">
<stop stop-color="#EEEEEE"/>
<stop offset="1" stop-color="white" stop-opacity="0"/>
</radialGradient>
<radialGradient id="paint11_radial" cx="0" cy="0" r="1" gradientUnits="userSpaceOnUse" gradientTransform="translate(29.7294 47.0447) rotate(95.7032) scale(14.5666 3.85102)">
<stop offset="0.284967" stop-color="#ACACAC"/>
<stop offset="1" stop-color="#B9B9B9" stop-opacity="0"/>
</radialGradient>
<linearGradient id="paint12_linear" x1="29.7291" y1="55.017" x2="33.3522" y2="58.2735" gradientUnits="userSpaceOnUse">
<stop offset="0.180407" stop-color="#EBEBEB"/>
<stop offset="0.876518" stop-color="#DEDEDE" stop-opacity="0"/>
</linearGradient>
<clipPath id="clip0">
<rect width="38" height="48" fill="white" transform="translate(12 34)"/>
</clipPath>
</defs>
</svg>
