<svg width="60" height="90" viewBox="0 0 60 90" fill="none" xmlns="http://www.w3.org/2000/svg">
<rect x="0.25" y="0.25" width="59.5" height="89.5" rx="3.75" fill="#FAFAFA"/>
<rect x="3.75" y="3.75" width="52.5" height="82.5" rx="1.25" stroke="#BC1D0E" stroke-width="1.5"/>
<g clip-path="url(#clip0)">
<g filter="url(#filter0_f)">
<ellipse cx="30" cy="74" rx="16" ry="5" fill="#CCCCCC"/>
</g>
<path d="M48.9707 47.1664L38.527 37H21.9177L10.9707 47.1664V64.5237L21.9177 75H38.527L48.9707 64.5237V47.1664Z" fill="url(#paint0_linear)"/>
<path d="M37.7129 38.855L47.1138 48.0063V63.706L37.7085 73.1407H22.6939L12.8281 63.6991V48.0132L22.6896 38.855H37.7129Z" stroke="white"/>
<g filter="url(#filter1_d)">
<path d="M20.8827 56.1078L17.9978 50.6026C17.5453 49.6378 18.6201 48.1055 19.9211 49.354C21.0976 51.4426 22.5231 53.7052 23.0888 54.5754C23.4659 54.6132 24.1975 54.5187 24.1069 53.8376C24.0164 53.1565 23.843 47.9541 23.7676 45.438C23.7676 44.5299 25.3514 43.4516 26.0302 45.438C26.2112 47.6173 26.4827 51.9458 26.5958 53.8376C26.841 53.9322 27.3651 53.9624 27.5009 53.3268C27.6367 52.6911 28.4248 46.8568 28.8019 44.0191C29.0282 43.111 30.7252 42.3733 31.1211 44.4163C31.1211 45.0066 30.3292 50.9431 29.9332 53.8376C30.0652 54.1403 30.4876 54.4619 31.1211 53.3268C31.6189 52.1009 33.4026 47.7459 34.2322 45.7217C34.5151 45.438 35.7595 44.8136 35.9292 46.4595C35.7935 47.186 33.9117 53.1944 32.9878 56.1078C32.7238 57.678 32.8068 60.8183 35.2504 60.8183C35.9292 60.9886 39.4929 59.2292 41.0201 60.4211C41.303 60.6418 42.0949 60.9318 42.3211 62.1237C42.0949 62.9182 41.6424 62.9561 41.5292 63.0885C40.0208 63.3155 36.6985 63.9852 35.4767 64.8479C34.7413 65.3019 30.4989 68.0261 26.0302 67.4586C24.8423 67.1748 19.9211 67.4587 20.8827 56.1078Z" fill="white"/>
</g>
</g>
<path d="M22.125 23H20.1152L17.1758 16.4717V23H15.166V13.0469H17.1758L20.1221 19.582V13.0469H22.125V23Z" fill="#111111"/>
<path d="M30.5451 18.9189C30.5451 20.2542 30.2284 21.291 29.5949 22.0293C28.966 22.7676 28.091 23.1367 26.9699 23.1367C25.8534 23.1367 24.9761 22.7721 24.3381 22.043C23.7001 21.3092 23.3765 20.2839 23.3674 18.9668V17.2646C23.3674 15.8975 23.6841 14.8311 24.3176 14.0654C24.951 13.2952 25.8306 12.9102 26.9563 12.9102C28.0637 12.9102 28.9364 13.2884 29.5744 14.0449C30.2124 14.7969 30.536 15.8542 30.5451 17.2168V18.9189ZM28.5285 17.251C28.5285 16.3532 28.4009 15.6855 28.1457 15.248C27.8905 14.8105 27.494 14.5918 26.9563 14.5918C26.423 14.5918 26.0288 14.8037 25.7736 15.2275C25.5184 15.6468 25.3863 16.2871 25.3771 17.1484V18.9189C25.3771 19.7894 25.507 20.432 25.7668 20.8467C26.0266 21.2568 26.4276 21.4619 26.9699 21.4619C27.494 21.4619 27.8837 21.2614 28.1389 20.8604C28.3941 20.4548 28.524 19.8281 28.5285 18.9805V17.251Z" fill="#111111"/>
<path d="M33.7973 19.5V23H31.7875V13.0469H35.1781C36.1625 13.0469 36.9464 13.3522 37.5297 13.9629C38.1176 14.5736 38.4115 15.3665 38.4115 16.3418C38.4115 17.3171 38.1221 18.0872 37.5434 18.6523C36.9646 19.2174 36.1625 19.5 35.1371 19.5H33.7973ZM33.7973 17.8252H35.1781C35.5609 17.8252 35.8572 17.6999 36.0668 17.4492C36.2764 17.1986 36.3813 16.834 36.3813 16.3555C36.3813 15.8587 36.2742 15.4645 36.06 15.1729C35.8458 14.8766 35.5587 14.7262 35.1986 14.7217H33.7973V17.8252Z" fill="#111111"/>
<path d="M44.6988 18.6934H41.568V21.332H45.273V23H39.5582V13.0469H45.2594V14.7217H41.568V17.0732H44.6988V18.6934Z" fill="#111111"/>
<rect x="0.25" y="0.25" width="59.5" height="89.5" rx="3.75" stroke="#BBBBBB" stroke-width="0.5"/>
<defs>
<filter id="filter0_f" x="9" y="64" width="42" height="20" filterUnits="userSpaceOnUse" color-interpolation-filters="sRGB">
<feFlood flood-opacity="0" result="BackgroundImageFix"/>
<feBlend mode="normal" in="SourceGraphic" in2="BackgroundImageFix" result="shape"/>
<feGaussianBlur stdDeviation="2.5" result="effect1_foregroundBlur"/>
</filter>
<filter id="filter1_d" x="16.8926" y="43.1074" width="28.4286" height="28.4286" filterUnits="userSpaceOnUse" color-interpolation-filters="sRGB">
<feFlood flood-opacity="0" result="BackgroundImageFix"/>
<feColorMatrix in="SourceAlpha" type="matrix" values="0 0 0 0 0 0 0 0 0 0 0 0 0 0 0 0 0 0 127 0"/>
<feOffset dx="1" dy="2"/>
<feGaussianBlur stdDeviation="1"/>
<feColorMatrix type="matrix" values="0 0 0 0 0 0 0 0 0 0 0 0 0 0 0 0 0 0 0.25 0"/>
<feBlend mode="normal" in2="BackgroundImageFix" result="effect1_dropShadow"/>
<feBlend mode="normal" in="SourceGraphic" in2="effect1_dropShadow" result="shape"/>
</filter>
<linearGradient id="paint0_linear" x1="22.3241" y1="30.5974" x2="31.0477" y2="81.9619" gradientUnits="userSpaceOnUse">
<stop offset="0.130755" stop-color="#BA2314"/>
<stop offset="0.519439" stop-color="#CB2413"/>
<stop offset="0.878695" stop-color="#82180E"/>
</linearGradient>
<clipPath id="clip0">
<rect width="38" height="45" fill="white" transform="translate(11 37)"/>
</clipPath>
</defs>
</svg>
