<svg version="1.1" xmlns="http://www.w3.org/2000/svg" xmlns:xlink="http://www.w3.org/1999/xlink"
     width="60" height="90">
    <defs>
        <path d="M60 0C60 0 60 0 60 0C60 54 60 84 60 90C60 90 60 90 60 90C24 90 4 90 0 90C0 90 0 90 0 90C0 36 0 6 0 0C0 0 0 0 0 0C36 0 56 0 60 0Z"
              id="c48hKFfZb2"></path>
        <path d="M50 0C56.67 0 60 3.33 60 10C60 52 60 75.33 60 80C60 86.67 56.67 90 50 90C26 90 12.67 90 10 90C3.33 90 0 86.67 0 80C0 38 0 14.67 0 10C0 3.33 3.33 0 10 0C34 0 47.33 0 50 0Z"
              id="a10JydYCgS"></path>
        <path d="M50 5C53.33 5 55 6.67 55 10C55 52 55 75.33 55 80C55 83.33 53.33 85 50 85C26 85 12.67 85 10 85C6.67 85 5 83.33 5 80C5 38 5 14.67 5 10C5 6.67 6.67 5 10 5C34 5 47.33 5 50 5Z"
              id="b1tz40geEy"></path>
        <text id="asrpCdppZ" x="14.05" y="45" font-size="14" font-family="Open Sans" font-weight="normal"
              font-style="normal" letter-spacing="0" alignment-baseline="before-edge"
              transform="matrix(1 0 0 1 -4.829278729967058 -12.251746605732095)" style="line-height:100%"
              xml:space="preserve" dominant-baseline="text-before-edge"><tspan x="14.05" dy="0em" alignment-baseline="before-edge" dominant-baseline="text-before-edge" text-anchor="start">Shuffle</tspan></text>
    </defs>
    <g>
        <g>
            <g>
                <use xlink:href="#c48hKFfZb2" opacity="1" fill="#000000" fill-opacity="0"></use>
                <g>
                    <use xlink:href="#c48hKFfZb2" opacity="1" fill-opacity="0" stroke="#000000" stroke-width="1"
                         stroke-opacity="0"></use>
                </g>
            </g>
            <g>
                <use xlink:href="#a10JydYCgS" opacity="1" fill="#ffffff" fill-opacity="1"></use>
                <g>
                    <use xlink:href="#a10JydYCgS" opacity="1" fill-opacity="0" stroke="#000000" stroke-width="0.5"
                         stroke-opacity="1"></use>
                </g>
            </g>
            <g>
                <use xlink:href="#b1tz40geEy" opacity="1" fill="#b69b51" fill-opacity="1"></use>
                <g>
                    <use xlink:href="#b1tz40geEy" opacity="1" fill-opacity="0" stroke="#000000" stroke-width="1"
                         stroke-opacity="0"></use>
                </g>
            </g>
            <g id="blS7ENtb">
                <use xlink:href="#asrpCdppZ" opacity="1" fill="#fefefe" fill-opacity="1"></use>
            </g>
        </g>
    </g>
</svg>
