<svg xmlns="http://www.w3.org/2000/svg" version="1.1" width="60" height="90" style="">
    <rect width="100%" height="100%" x="0" y="0" fill="none" stroke="none"/>

    <g>
        <rect width="60" height="90" rx="10" ry="10" x="0" y="0"
              style="fill:#ffffff;fill-opacity:1;fill-rule:evenodd;stroke:#000000;stroke-width:0.5;stroke-miterlimit:4;stroke-dasharray:none"/>
        <rect width="50" height="80" rx="5" ry="5" x="5" y="5"
              style="fill-opacity:1;fill-rule:evenodd;stroke:none"/>
        <path d="m45,19.999987382812492 c-22.09139,0 -40,17.90861 -40,40 c0,5.52285 4.47715,10 10,10 c22.09139,0 40,-17.90861 40,-40 c0,-5.52285 -4.47715,-10 -10,-10 z"
              style="fill:#ffffff;fill-opacity:1;fill-rule:evenodd;stroke:none"/>
        <path d="m29,29.999997382812523 c-5.54,0 -10,4.45999 -10,9.99999 l0,1 l5,0 l0,-1 c0,-2.77 2.23,-5 5,-5 c2.77,0 5,2.23 5,5 c0,1.1275 -0.93551,3.34015 -1.91245,4.10902 c-5.30481,4.17494 -5.24881,3.48544 -13.08755,8.89098 l0,7 l10,0 l10,0 l0,-5 l0,-2 l-5,0 l0,2 l-5,0 l-4,0 c6.19007,-4.35874 6.6427000000000005,-4.25311 11.49308,-8.59375 c1.55408,-1.39076 2.50692,-4.15105 2.50692,-6.40625 c0,-5.54 -4.46,-9.99999 -10,-9.99999 z"
              style="fill-opacity:1;stroke:none"/>
        <path d="m12.5,7.499987382812492 c-2.77,0 -5,2.23 -5,5 l0,0.5 l2.5,0 l0,-0.5 c0,-1.385 1.115,-2.5 2.5,-2.5 c1.385,0 2.5,1.115 2.5,2.5 c0,0.5637500000000001 -0.46776,1.6700700000000002 -0.95623,2.05451 c-2.6524,2.08747 -2.6244,1.7427200000000003 -6.54377,4.44549 l0,3.5 l5,0 l5,0 l0,-2.5 l0,-1 l-2.5,0 l0,1 l-2.5,0 l-2,0 c3.09503,-2.17937 3.3213500000000002,-2.12655 5.74654,-4.29687 c0.7770400000000001,-0.6953800000000001 1.25346,-2.07553 1.25346,-3.20313 c0,-2.77 -2.23,-5 -5,-5 z"
              style="fill:#ffffff;fill-opacity:1;stroke:none"/>
        <path d="m47.5,82.49998738281249 c2.77,0 5,-2.23 5,-5 l0,-0.5 l-2.5,0 l0,0.5 c0,1.385 -1.115,2.5 -2.5,2.5 c-1.385,0 -2.5,-1.115 -2.5,-2.5 c0,-0.5637500000000001 0.46776,-1.6700700000000002 0.95623,-2.05451 c2.6524,-2.08747 2.6244,-1.7427200000000003 6.54377,-4.44549 l0,-3.5 l-5,0 l-5,0 l0,2.5 l0,1 l2.5,0 l0,-1 l2.5,0 l2,0 c-3.09503,2.17937 -3.3213500000000002,2.12655 -5.74654,4.29687 c-0.7770400000000001,0.6953800000000001 -1.25346,2.07553 -1.25346,3.20313 c0,2.77 2.23,5 5,5 z"
              style="fill:#ffffff;fill-opacity:1;stroke:none"/>
    </g>
</svg>
